^E:\С++\CONSOLEAPPLICATION2\CONSOLEAPPLICATION2\DEBUG\CONSOLEAPPLICATION2.OBJ|E:\С++\CONSOLEAPPLICATION2\CONSOLEAPPLICATION2\DEBUG\HELPERS.OBJ
/OUT:"E:\С++\CONSOLEAPPLICATION2\DEBUG\CONSOLEAPPLICATION2.EXE" /INCREMENTAL /NOLOGO KERNEL32.LIB USER32.LIB GDI32.LIB WINSPOOL.LIB COMDLG32.LIB ADVAPI32.LIB SHELL32.LIB OLE32.LIB OLEAUT32.LIB UUID.LIB ODBC32.LIB ODBCCP32.LIB /MANIFEST /MANIFESTUAC:"level='asInvoker' uiAccess='false'" /manifest:embed /DEBUG:FASTLINK /PDB:"E:\С++\CONSOLEAPPLICATION2\DEBUG\CONSOLEAPPLICATION2.PDB" /SUBSYSTEM:CONSOLE /TLBID:1 /DYNAMICBASE /NXCOMPAT /IMPLIB:"E:\С++\CONSOLEAPPLICATION2\DEBUG\CONSOLEAPPLICATION2.LIB" /MACHINE:X86 DEBUG\CONSOLEAPPLICATION2.OBJ
DEBUG\HELPERS.OBJ
