^E:\С++\CONSOLEAPPLICATION2\CONSOLEAPPLICATION2\DEBUG\CONSOLEAPPLICATION2.OBJ|E:\С++\CONSOLEAPPLICATION2\CONSOLEAPPLICATION2\DEBUG\HELPERS.OBJ
E:\С++\CONSOLEAPPLICATION2\DEBUG\CONSOLEAPPLICATION2.EXE
E:\С++\CONSOLEAPPLICATION2\DEBUG\CONSOLEAPPLICATION2.ILK
E:\С++\CONSOLEAPPLICATION2\DEBUG\CONSOLEAPPLICATION2.PDB
